<?xml version="1.0" encoding="UTF-8" standalone="no"?>
<!-- Created with Inkscape (http://www.inkscape.org/) -->

<svg
   xmlns:dc="http://purl.org/dc/elements/1.1/"
   xmlns:cc="http://creativecommons.org/ns#"
   xmlns:rdf="http://www.w3.org/1999/02/22-rdf-syntax-ns#"
   xmlns:svg="http://www.w3.org/2000/svg"
   xmlns="http://www.w3.org/2000/svg"
   xmlns:sodipodi="http://sodipodi.sourceforge.net/DTD/sodipodi-0.dtd"
   xmlns:inkscape="http://www.inkscape.org/namespaces/inkscape"
   width="1748"
   height="512"
   viewBox="0 0 1748 512"
   id="svg2"
   version="1.1"
   inkscape:version="0.91 r13725"
   sodipodi:docname="universis_logo.svg"
   inkscape:export-filename="/Users/kbarbounakis/Graphics/text4138.png"
   inkscape:export-xdpi="45"
   inkscape:export-ydpi="45">
  <defs
     id="defs4" />
  <sodipodi:namedview
     id="base"
     pagecolor="#ffffff"
     bordercolor="#666666"
     borderopacity="1.0"
     inkscape:pageopacity="0.0"
     inkscape:pageshadow="2"
     inkscape:zoom="0.65160183"
     inkscape:cx="874"
     inkscape:cy="256"
     inkscape:document-units="px"
     inkscape:current-layer="layer1"
     showgrid="true"
     units="px"
     inkscape:window-width="1623"
     inkscape:window-height="878"
     inkscape:window-x="32"
     inkscape:window-y="20"
     inkscape:window-maximized="0">
    <inkscape:grid
       type="xygrid"
       id="grid4136" />
  </sodipodi:namedview>
  <metadata
     id="metadata7">
    <rdf:RDF>
      <cc:Work
         rdf:about="">
        <dc:format>image/svg+xml</dc:format>
        <dc:type
           rdf:resource="http://purl.org/dc/dcmitype/StillImage" />
        <dc:title />
      </cc:Work>
    </rdf:RDF>
  </metadata>
  <g
     inkscape:label="Layer 1"
     inkscape:groupmode="layer"
     id="layer1"
     transform="translate(0,-540.36216)">
    <text
       xml:space="preserve"
       style="font-style:normal;font-weight:normal;font-size:40px;line-height:125%;font-family:sans-serif;letter-spacing:0px;word-spacing:0px;fill:#5c6bc0;fill-opacity:1;stroke:none;stroke-width:1px;stroke-linecap:butt;stroke-linejoin:miter;stroke-opacity:1;"
       x="419.28116"
       y="887.87476"
       id="text4138"
       sodipodi:linespacing="125%"><tspan
         sodipodi:role="line"
         id="tspan4140"
         x="419.28116"
         y="887.87476"
         style="font-style:normal;font-variant:normal;font-weight:normal;font-stretch:normal;font-size:310px;font-family:Roboto;-inkscape-font-specification:Roboto;fill:#5c6bc0;">univer</tspan></text>
    <path
       style="opacity:1;fill:#c51162;fill-opacity:1;stroke:none;stroke-width:40;stroke-linejoin:miter;stroke-miterlimit:4;stroke-dasharray:none;stroke-opacity:1"
       id="path4152"
       sodipodi:type="arc"
       sodipodi:cx="-796.36749"
       sodipodi:cy="207.42162"
       sodipodi:rx="170"
       sodipodi:ry="170"
       sodipodi:start="0"
       sodipodi:end="3.1304142"
       sodipodi:open="true"
       d="M -626.36749,207.42162 A 170,170 0 0 1 -795.41733,377.41896 170,170 0 0 1 -966.35687,209.32191"
       transform="matrix(0,-1,1,0,0,0)" />
    <path
       style="opacity:1;fill:#5c6bc0;fill-opacity:1;stroke:none;stroke-width:40;stroke-linejoin:miter;stroke-miterlimit:4;stroke-dasharray:none;stroke-opacity:1"
       id="path4152-5"
       sodipodi:type="arc"
       sodipodi:cx="880.8512"
       sodipodi:cy="-208.08203"
       sodipodi:rx="85"
       sodipodi:ry="85"
       sodipodi:start="0"
       sodipodi:end="3.1371049"
       sodipodi:open="true"
       d="m 965.8512,-208.08203 a 85,85 0 0 1 -84.80927,84.99978 85,85 0 0 1 -85.18988,-84.61832"
       transform="matrix(0,1,-1,0,0,0)" />
    <path
       style="opacity:1;fill:#ffffff;fill-opacity:1;stroke:none;stroke-width:40;stroke-linejoin:miter;stroke-miterlimit:4;stroke-dasharray:none;stroke-opacity:1"
       id="path4152-5-4"
       sodipodi:type="arc"
       sodipodi:cx="-880.85205"
       sodipodi:cy="207.74445"
       sodipodi:rx="85"
       sodipodi:ry="85"
       sodipodi:start="0"
       sodipodi:end="3.1371049"
       sodipodi:open="true"
       d="m -795.85205,207.74445 a 85,85 0 0 1 -84.80927,84.99978 85,85 0 0 1 -85.18987,-84.61833"
       transform="matrix(0,-1,1,0,0,0)" />
    <text
       xml:space="preserve"
       style="font-style:normal;font-weight:normal;font-size:40px;line-height:125%;font-family:sans-serif;letter-spacing:0px;word-spacing:0px;fill:#c51162;fill-opacity:1;stroke:none;stroke-width:1px;stroke-linecap:butt;stroke-linejoin:miter;stroke-opacity:1;"
       x="1245.4404"
       y="887.87476"
       id="text4138-3"
       sodipodi:linespacing="125%"><tspan
         sodipodi:role="line"
         id="tspan4140-3"
         x="1245.4404"
         y="887.87476"
         style="font-style:normal;font-variant:normal;font-weight:normal;font-stretch:normal;font-size:310px;font-family:Roboto;-inkscape-font-specification:Roboto;fill:#c51162;fill-opacity:1;">sis</tspan></text>
  </g>
</svg>
