{
    "model": "ProgramCourses",
    "title": "Study program course",
    "subtitle": "Add",
    "display": "form",
    "settings": {
        "i18n": {
            "el": {
                "Add": "Δημιουργία",
                "Study program course": "Μάθημα προγράμματος σπουδών",
                "General": "Γενικά",
                "Course": "Μάθημα",
                "Specialization": "Κατεύθυνση",
                "Type": "Τύπος",
                "Set course type according to rules and requirements of this study program.": "Ορίστε τον τύπο του μαθήματος σύμφωνα με τους κανόνες και τις προϋποθέσεις του προγράμματος σπουδών.",
                "Units": "Διδακτικές μονάδες",
                "Set course units. Course units will be used while validating degree requirements.": "Ορίστε τις διδακτικές μονάδες. Οι διδακτικές μονάδες ενός μαθήματος θα χρησιμοποιηθούν κατά τον έλεγχο προϋποθέσεων λήψης πτυχίου.",
                "ECTS": "ECTS",
                "Set ECTS units. Course ECTS will be used while validating degree requirements.": "Ορίστε τις μονάδες ECTS. Οι μονάδες ECTS ενός μαθήματος θα χρησιμοποιηθούν κατά τον έλεγχο προϋποθέσεων λήψης πτυχίου.",
                "Set course semester according to rules and requirements of this study program.": "Ορίστε το εξάμηνό του μαθήματος σύμφωνα με τους κανόνες και τις προϋποθέσεις του προγράμματος σπουδών.",
                "Set course coefficient. This attribute is going to used while calculating degree grade.": "Ορίστε τον συντελεστή του μαθήματος. Το στοιχείο αυτό θα χρησιμοποιηθεί κατά τον υπολογισμό του βαθμού πτυχίου."
            }
        }
    },
    "components": [
        {
            "type": "fieldset",
            "components": [
                {
                    "columns": [
                        {
                            "components": [
                                {
                                    "label": "HTML",
                                    "tag": "div",
                                    "className": "form-group",
                                    "content": "<label class=\"col-form-label text-secondary\">{{instance.t('Course')}}</label><div class=\"form-control h-auto\">[{{ data.studyProgramCourse && data.studyProgramCourse.course && data.studyProgramCourse.course.displayCode }}] {{ data.studyProgramCourse && data.studyProgramCourse.course && data.studyProgramCourse.course.name }}</div>",
                                    "refreshOnChange": false,
                                    "tableView": false,
                                    "key": "courseTitle",
                                    "customConditional": "show = !!data.studyProgramCourse",
                                    "type": "htmlelement",
                                    "input": false
                                },
                                {
                                    "label": "HTML",
                                    "tag": "div",
                                    "className": "form-group",
                                    "content": "<label class=\"col-form-label text-secondary\">{{instance.t('Specialization')}}</label><div class=\"form-control h-auto\">{{ data.specialization && data.specialization.name }}</div>",
                                    "refreshOnChange": false,
                                    "tableView": false,
                                    "key": "courseTitle",
                                    "customConditional": "show = !!data.studyProgramCourse",
                                    "type": "htmlelement",
                                    "input": false
                                },
                                {
                                    "label": "Type",
                                    "labelPosition": "top",
                                    "widget": "choicesjs",
                                    "dataSrc": "url",
                                    "data": {
                                        "url": "CourseTypes?$orderby=name",
                                        "headers": []
                                    },
                                    "template": "<span class='col-4 text-truncate'>{{ item.name }}</span>",
                                    "selectValues": "value",
                                    "key": "courseType",
                                    "valueProperty": "id",
                                    "searchEnabled": false,
                                    "validate": {
                                        "required": true
                                    },
                                    "type": "select",
                                    "input": true,
                                    "lazyLoad": false,
                                    "description": "Set course type according to rules and requirements of this study program."
                                },
                                {
                                    "label": "Units",
                                    "mask": false,
                                    "spellcheck": true,
                                    "tableView": false,
                                    "delimiter": false,
                                    "requireDecimal": false,
                                    "inputFormat": "plain",
                                    "validate": {
                                        "unique": false,
                                        "multiple": false,
                                        "required": true
                                    },
                                    "key": "units",
                                    "type": "number",
                                    "input": true,
                                    "hideOnChildrenHidden": false,
                                    "description": "Set course units. Course units will be used while validating degree requirements."
                                },
                                {
                                    "label": "ECTS",
                                    "mask": false,
                                    "spellcheck": true,
                                    "tableView": false,
                                    "delimiter": false,
                                    "requireDecimal": false,
                                    "inputFormat": "plain",
                                    "validate": {
                                        "unique": false,
                                        "multiple": false,
                                        "required": true
                                    },
                                    "key": "ects",
                                    "type": "number",
                                    "input": true,
                                    "hideOnChildrenHidden": false,
                                    "description": "Set ECTS units. Course ECTS will be used while validating degree requirements."
                                }
                            ],
                            "width": 6,
                            "offset": 0,
                            "push": 0,
                            "pull": 0
                        },
                        {
                            "components": [
                                {
                                    "label": "Semester",
                                    "labelPosition": "top",
                                    "widget": "choicesjs",
                                    "dataSrc": "url",
                                    "data": {
                                        "url": "Semesters?$orderby=id",
                                        "headers": []
                                    },
                                    "template": "<span class='col-4 text-truncate'>{{ item.name }}</span>",
                                    "selectValues": "value",
                                    "key": "semester",
                                    "valueProperty": "id",
                                    "searchEnabled": false,
                                    "type": "select",
                                    "input": true,
                                    "lazyLoad": false,
                                    "description": "Set course semester according to rules and requirements of this study program."
                                },
                                {
                                    "label": "Coefficient",
                                    "mask": false,
                                    "spellcheck": true,
                                    "tableView": false,
                                    "delimiter": false,
                                    "requireDecimal": false,
                                    "inputFormat": "plain",
                                    "validate": {
                                        "unique": false,
                                        "multiple": false,
                                        "required": true
                                    },
                                    "key": "coefficient",
                                    "type": "number",
                                    "input": true,
                                    "hideOnChildrenHidden": false,
                                    "description": "Set course coefficient. This attribute is going to used while calculating degree grade."
                                }
                            ],
                            "width": 6,
                            "offset": 0,
                            "push": 0,
                            "pull": 0
                        }
                    ],
                    "hideLabel": true,
                    "type": "columns",
                    "input": false
                }
            ]
        },
        {
            "type": "button",
            "label": "Submit",
            "key": "submit",
            "theme":"indigo",
            "hidden": true,
            "disableOnInvalid": true,
            "input": true,
            "tableView": false,
            "validate": {
                "unique": false,
                "multiple": false
            }
        }
    ]
}
