{
    "model": "Internships",
    "title": "New internship",
    "display": "form",
    "settings": {
        "i18n": {
            "el": {
                "New internship": "Νέα πρακτική άσκηση"
            }
        }
    },
    "components": [
        {
            "legend": "Internship Information",
            "key": "fieldSet",
            "type": "fieldset",
            "input": false,
            "label": "Internship Information",
            "components": [
                {
                    "columns": [
                        {
                            "components": [
                                {
                                    "type": "select",
                                    "label": "Department",
                                    "labelPosition": "top",
                                    "dataSrc": "url",
                                    "data": {
                                        "url": "LocalDepartments/?$select=id,name",
                                        "headers": []
                                    },
                                    "template": "<span class='d-block pr-5 text-truncate'>{{ item.name }}</span>",
                                    "selectValues": "value",
                                    "widget": "choicesjs",
                                    "key": "department.name",
                                    "input": true,
                                    "lazyLoad": false,
                                    "searchEnabled": true,
                                    "searchFields":[ "value.id", "value.name" ]
                                }
                            ],
                            "width": 9,
                            "offset": 0,
                            "push": 0,
                            "pull": 0
                        },
                        {
                            "components": [
                                {
                                    "type": "textfield",
                                    "label": "ID",
                                    "labelPosition": "top",
                                    "widget": {
                                        "type": "input"
                                    },
                                    "key": "id",
                                    "input": true
                                }
                            ],
                            "width": 3,
                            "offset": 0,
                            "push": 0,
                            "pull": 0
                        }
                    ],
                    "customClass": "text-dark",
                    "hideLabel": true,
                    "type": "columns",
                    "input": false
                },
                {
                    "columns": [
                        {
                            "components": [
                                {
                                    "type": "textfield",
                                    "label": "Company",
                                    "key": "company",
                                    "input": true,
                                    "validate": {
                                        "required": true
                                    }
                                }
                            ],
                            "width": 3,
                            "offset": 0,
                            "push": 0,
                            "pull": 0
                        },
                        {
                            "components": [
                                {
                                    "type": "textfield",
                                    "label": "Company contact",
                                    "key": "companyContact",
                                    "input": true,
                                    "validate": {
                                        "required": true
                                    }
                                }
                            ],
                            "width": 3,
                            "offset": 0,
                            "push": 0,
                            "pull": 0
                        },
                        {
                            "components": [
                                {
                                    "type": "textfield",
                                    "label": "Company contact phone",
                                    "key": "companyContactPhone",
                                    "spellcheck": true,
                                    "inputMask": "+999999999999",
                                    "input": true
                                }
                            ],
                            "width": 3,
                            "offset": 0,
                            "push": 0,
                            "pull": 0
                        },
                        {
                            "components": [
                                {
                                    "label": "Year",
                                    "key": "internshipYear.alternateName",
                                    "labelPosition": "top",
                                    "type": "select",
                                    "searchEnabled": true,
                                    "searchFields":  [ "value.id", "value.alternateName" ],
                                    "dataSrc": "url",
                                    "data": {
                                        "url": "AcademicYears/?$top=90&$orderby=id desc",
                                        "headers": []
                                    },
                                    "template": "<span class='d-block pr-5 text-truncate'>{{ item.alternateName }}</span>",
                                    "input": true,
                                    "lazyLoad": true,
                                    "selectValues": "value",
                                    "widget": "choicesjs",
                                    "validate": {
                                        "required": true
                                    }
                                }
                            ],
                            "width": 3,
                            "offset": 0,
                            "push": 0,
                            "pull": 0
                        }
                    ],
                    "customClass": "text-dark",
                    "type": "columns",
                    "input": false
                },
                {
                    "columns": [
                        {
                            "components": [
                                {
                                    "type": "datetime",
                                    "format": "dd/MM/yyyy",
                                    "label": "Start date",
                                    "key": "startDate",
                                    "input": true,
                                    "validate": {
                                        "required": true
                                    }
                                }
                            ],
                            "width": 3,
                            "offset": 0,
                            "push": 0,
                            "pull": 0
                        },
                        {
                            "components": [
                                {
                                    "type": "datetime",
                                    "format": "dd/MM/yyyy",
                                    "label": "Date completed",
                                    "key": "dateCompleted",
                                    "input": true
                                }
                            ],
                            "width": 3,
                            "offset": 0,
                            "push": 0,
                            "pull": 0
                        },
                        {
                            "components": [
                                {
                                    "type": "select",
                                    "label": "Internship status",
                                    "key": "status.name",
                                    "input": true,
                                    "dataSrc": "url",
                                    "data": {
                                        "url": "InternshipStatuses",
                                        "headers": []
                                    },
                                    "template": "<span class='d-block pr-5 text-truncate'>{{ item.name }}</span>",
                                    "selectValues": "value",
                                    "validate": {
                                        "required": true
                                    },
                                    "defaultValue": "potential",
                                    "valueProperty": "alternateName",
                                    "searchEnabled": false,
                                    "lazyLoad": false
                                }
                            ],
                            "width": 3,
                            "offset": 0,
                            "push": 0,
                            "pull": 0
                        },
                        {
                            "components": [
                                {
                                    "type": "select",
                                    "label": "Period",
                                    "key": "internshipPeriod.name",
                                    "input": true,
                                    "searchEnabled": true,
                                    "searchFields":  [ "value.id", "value.alternateName" ],
                                    "dataSrc": "url",
                                    "data": {
                                        "url": "AcademicPeriods",
                                        "headers": []
                                    },
                                    "template": "<span class='d-block pr-5 text-truncate'>{{ item.name }}</span>",
                                    "selectValues": "value",
                                    "widget": "choicesjs",
                                    "validate": {
                                        "required": true
                                    }
                                }
                            ],
                            "width": 3,
                            "offset": 0,
                            "push": 0,
                            "pull": 0
                        }
                    ],
                    "customClass": "text-dark",
                    "type": "columns",
                    "input": false
                },
                {
                    "columns": [
                        {
                            "components": [
                                {
                                    "type": "textarea",
                                    "label": "Internship name",
                                    "key": "name",
                                    "input": true,
                                    "rows": 2,
                                    "validate": {
                                        "required": true
                                    }
                                }
                            ],
                            "width": 12,
                            "offset": 0,
                            "push": 0,
                            "pull": 0
                        }
                    ],
                    "customClass": "text-dark",
                    "type": "columns",
                    "input": false
                }
            ]
        },
        {
            "legend": "Student Information",
            "key": "fieldSet",
            "type": "fieldset",
            "input": false,
            "label": "Student Information",
            "components": [
                {
                    "columns": [
                        {
                            "components": [
                                {
                                    "label": "Student Number",
                                    "labelPosition": "top",
                                    "key": "student.studentIdentifier",
                                    "widget": "choicesjs",
                                    "placeholder": "Αναζητήστε με βάση τον αριθμό μητρώου",
                                    "type": "select",
                                    "input": true,
                                    "selectThreshold": 1,
                                    "selectValues": "value",
                                    "dataSrc": "url",
                                    "searchField": "search",
                                    "data": {
                                        "url": "Students/?$filter=(department eq {{data.department.id}}) and (studentStatus/alternateName eq 'active') and (indexof(studentIdentifier,'{{search}}') ge 0) )",
                                        "headers": []
                                    },
                                    "template": "<span class='col-4 text-truncate'>{{ item.studentIdentifier }} | {{ item.person.familyName }}</span>",
                                    "lazyLoad": true,
                                    "searchEnabled": true
                                }
                            ],
                            "width": 6,
                            "offset": 0,
                            "push": 0,
                            "pull": 0
                        }
                    ],
                    "customClass": "text-dark",
                    "type": "columns",
                    "input": false
                },
                {
                    "columns": [
                        {
                            "components": [
                                {
                                    "label": "Given Name",
                                    "labelPosition": "top",
                                    "dataSrc": "url",
                                    "widget": {
                                        "type": "input"
                                    },
                                    "key": "student.person.givenName",
                                    "type": "textfield",
                                    "input": true,
                                    "refreshOn": "student.studentIdentifier",
                                    "lazyLoad": true,
                                    "calculateValue": "value = data.student.studentIdentifier.person.givenName"
                                }
                            ],
                            "width": 3,
                            "offset": 0,
                            "push": 0,
                            "pull": 0
                        },
                        {
                            "components": [
                                {
                                    "label": "Family Name",
                                    "lazyLoad": false,
                                    "labelPosition": "top",
                                    "key": "student.person.familyName",
                                    "type": "textfield",
                                    "input": true,
                                    "refreshOn": "student.studentIdentifier",
                                    "clearOnRefresh": true,
                                    "calculateValue": "value = data.student.studentIdentifier.person.familyName"
                                }
                            ],
                            "width": 3,
                            "offset": 0,
                            "push": 0,
                            "pull": 0
                        },
                        {
                            "components": [
                                {
                                    "label": "Father's Name",
                                    "labelPosition": "top",
                                    "widget": "choicesjs",
                                    "dataSrc": "url",
                                    "searchFields": [
                                        "id"
                                    ],
                                    "selectThreshold": 0.3,
                                    "selectValues": "value",
                                    "key": "student.person.fatherName",
                                    "type": "textfield",
                                    "input": true,
                                    "calculateValue": "value = data.student.studentIdentifier.person.fatherName",
                                    "refreshOn": "student.studentIdentifier",
                                    "clearOnRefresh": true
                                }
                            ],
                            "width": 3,
                            "offset": 0,
                            "push": 0,
                            "pull": 0
                        },
                        {
                            "components": [
                                {
                                    "label": "Status",
                                    "labelPosition": "top",
                                    "widget": "choicesjs",
                                    "dataSrc": "url",
                                    "data": {
                                        "url": "StudentStatuses",
                                        "headers": []
                                    },
                                    "template": "<span class='d-block pr-5 text-truncate'>{{ item.name }}</span>",
                                    "selectThreshold": 0.3,
                                    "selectValues": "value",
                                    "key": "student.studentStatus.name",
                                    "type": "select",
                                    "calculateValue": "value = data.student.studentIdentifier.studentStatus.name",
                                    "input": true,
                                    "refreshOn": "student.studentIdentifier",
                                    "clearOnRefresh": true
                                }
                            ],
                            "width": 3,
                            "offset": 0,
                            "push": 0,
                            "pull": 0
                        }
                    ],
                    "customClass": "text-dark",
                    "hideLabel": true,
                    "type": "columns",
                    "input": false,
                    "disabled": true
                },
                {
                    "columns": [
                        {
                            "components": [
                                {
                                    "label": "Email",
                                    "labelPosition": "top",
                                    "key": "student.person.email",
                                    "type": "textfield",
                                    "input": true,
                                    "selectValues": "value",
                                    "widget": "choicesjs",
                                    "calculateValue": "value = data.student.studentIdentifier.person.email",
                                    "refreshOn": "student.studentIdentifier",
                                    "clearOnRefresh": true
                                }
                            ],
                            "width": 3,
                            "offset": 0,
                            "push": 0,
                            "pull": 0
                        },
                        {
                            "components": [
                                {
                                    "label": "Mobile Phone",
                                    "labelPosition": "top",
                                    "key": "student.person.mobilePhone",
                                    "type": "number",
                                    "input": true,
                                    "selectValues": "value",
                                    "widget": "choicesjs",
                                    "calculateValue": "value = data.student.studentIdentifier.person.mobilePhone",
                                    "refreshOn": "student.studentIdentifier",
                                    "clearOnRefresh": true
                                }
                            ],
                            "width": 3,
                            "offset": 0,
                            "push": 0,
                            "pull": 0
                        },
                        {
                            "components": [
                                {
                                    "label": "Inscription Year",
                                    "labelPosition": "top",
                                    "key": "student.inscriptionYear.alternateName",
                                    "type": "textfield",
                                    "input": true,
                                    "selectValues": "value",
                                    "widget": "choicesjs",
                                    "calculateValue": "value = data.student.studentIdentifier.inscriptionYear.id",
                                    "refreshOn": "student.studentIdentifier",
                                    "clearOnRefresh": true,
                                    "disabled": true
                                }
                            ],
                            "width": 3,
                            "offset": 0,
                            "push": 0,
                            "pull": 0
                        },
                        {
                            "components": [
                                {
                                    "label": "Semester",
                                    "labelPosition": "top",
                                    "widget": {
                                        "type": "input"
                                    },
                                    "key": "student.semester",
                                    "type": "number",
                                    "input": true,
                                    "calculateValue": "value = data.student.studentIdentifier.semester",
                                    "refreshOn": "student.studentIdentifier",
                                    "clearOnRefresh": true,
                                    "disabled": true
                                }
                            ],
                            "width": 3,
                            "offset": 0,
                            "push": 0,
                            "pull": 0
                        }
                    ],
                    "customClass": "text-dark",
                    "type": "columns",
                    "input": false,
                    "disabled": true
                }
            ]
        },
        {
            "type": "button",
            "label": "Submit",
            "key": "submit",
            "disableOnInvalid": true,
            "input": true
        }
    ]
}
