{
  "title": "Users.Active",
  "model": "Users",
  "searchExpression": "indexof(alternateName, '${text}') ge 0 or indexof(name, '${text}') ge 0",
  "columns": [
    {
      "name": "id",
      "property": "id",
      "formatter": "ActionLinkFormatter",
      "actions": [
        {
          "title": "Users.Preview",
          "href": "#/users/${id}/dashboard"
        },
        {
          "title": "Users.Edit",
          "href": "#/users/${id}/edit"
        }
      ]
    },
    {
      "name": "alternateName",
      "property": "alternateName",
      "title": "Users.AlternateName"
    },
    {
      "name": "name",
      "property": "name",
      "title": "Users.Name"
    },
    {
      "name": "enabled",
      "property": "enabled",
      "title": "Users.StatusTitle",
      "formatter": "TranslationFormatter",
      "formatString": "Users.Status.${value}"
    }
  ],
  "criteria": [
    {
      "name": "alternateName",
      "filter": "(indexof(alternateName, '${value}') ge 0)",
      "type": "text"
    },
    {
      "name": "name",
      "filter": "(indexof(name, '${value}') ge 0)",
      "type": "text"
    },
    {
      "name": "enabled",
      "filter": "(enabled eq '${value}')",
      "type": "text"
    }
  ],
  "defaults":{
    "filter": "(enabled eq 1)"
  },
  "paths" : [
    {
      "name": "Users.Active",
      "alternateName": "list/active",
      "show": true,
      "filter": {
        "status": "active"
      }
    },
    {
      "name": "Users.All",
      "show": true,
      "alternateName": "list/index",
      "filter": {
      }
    }
  ]
}
