{
  "title": "Scholarships",
  "model": "Scholarships",
  "searchExpression":"indexof(name, '${text}') ge 0 or indexof(organization/name, '${text}') ge 0 or indexof(department/abbreviation, '${text}') ge 0 or indexof(year/alternateName, '${text}') ge 0 or indexof(status/name, '${text}') ge 0",
  "columns": [
    {
      "name":"id",
      "property": "id",
      "formatter": "ActionLinkFormatter",
      "actions" : [
        {
          "title": "Scholarships.Preview",
          "href": "#/scholarships/${id}/",
          "role": "preview"
        },
        {
          "title": "Scholarships.Edit",
          "href": "#/scholarships/${id}/edit",
          "role": "edit"
        }

      ]
    },
    {
      "name":"name",
      "title":"Scholarships.Name"
    },
    {
      "name":"department/abbreviation",
      "property": "departmentAbbreviation",
      "title":"Scholarships.Department"
    },
    {
      "name":"organization/name",
      "property": "organizationName",
      "title":"Scholarships.Organization"
    },
    {
      "name":"year/alternateName",
      "property":"yearAlternateName",
      "title":"Scholarships.YearAlternateName"
    },
    {
      "name":"scholarshipType/alternateName",
      "property":"scholarshipTypeName",
      "title":"Scholarships.ScholarshipTypeName",
      "formatter": "TranslationFormatter",
      "formatString": "Scholarships.ScholarshipType.${value || 'none'}"
    },
    {
      "name":"status/alternateName",
      "property":"scholarshipStatusName",
      "title":"Scholarships.StatusName",
      "formatter": "TranslationFormatter",
      "formatString": "Scholarships.StatusAlternateName.${value}"
    },
    {
      "name":"totalStudents",
      "title":"Scholarships.TotalStudents"
    }
  ],
  "defaults":{
    "filter": "(department eq ${currentDepartment})"
  },
  "criteria": [
    {
      "name": "name",
      "filter": "(indexof(name, '${value}') ge 0)",
      "type": "text"
    },
    {
      "name": "department",
      "filter": "(indexof(department/abbreviation, '${value}') ge 0)",
      "type": "text"
    },
    {
      "name": "organization",
      "filter": "(indexof(organization/name, '${value}') ge 0)",
      "type": "text"
    },
    {
      "name": "year",
      "filter": "(year eq '${value}')",
      "type": "text"
    },
    {
      "name": "scholarshipType",
      "filter": "(scholarshipType/alternateName eq '${value}')",
      "type": "text"
    },
    {
      "name": "status",
      "filter": "(status/alternateName eq '${value}')",
      "type": "text"
    }
  ],
  "paths" : [
    {
      "name": "Scholarships.All",
      "show": true,
      "alternateName": "list/index"
    },
    {
      "name": "Scholarships.Open",
      "alternateName": "list/open",
      "show": true
    },
    {
      "name": "Scholarships.ScholarshipType.award",
      "alternateName": "list/award"
    }
  ]
}
