{
    "title": "Registrations",
    "model": "StudentPeriodRegistrations",
    "searchExpression":"indexof(student/person/givenName, '${text}') ge 0 or indexof(student/person/familyName, '${text}') ge 0 or indexof(student/studentIdentifier, '${text}') ge 0 or indexof(registrationYear/alternateName, '${text}') ge 0",
    "columns": [
        {
            "name":"id",
            "title": "Registrations.ListTable.ID",
            "hidden" : "true"
        },
        {
            "name": "student",
            "hidden" : "true"
        },
        {
            "name":"id",
            "property": "linkID",
            "formatter": "ActionLinkFormatter",
            "actions" : [
                {
                    "title": "Registrations.ListTable.Preview.Registration",
                    "href": "#/registrations/${id}/"
                },
                {
                    "title": "Registrations.ListTable.Preview.Student",
                    "href": "#/students/${student}/"
                }
            ]
        },
        {
            "name":"student/studentIdentifier",
            "property":"studentIdentifier",
            "title":"Students.StudentIdentifier.short"
        },
        {
            "name":"student/person/givenName",
            "property" : "givenName",
            "hidden" : "true"
        },
        {
            "name":"student/person/familyName",
            "property" : "familyName",
            "title":"Registrations.ListTable.Student.label",
            "formatter": "TemplateFormatter",
            "formatString": "${familyName} ${givenName}"
        },
        {
            "name":"registrationDate",
            "title":"Registrations.ListTable.RegistrationDate",
            "formatter": "DateTimeFormatter",
            "formatString": "shortDate"
        },
        {
            "name":"semester",
            "title":"Students.semester"
        },
        {
            "name":"registrationPeriod/alternateName",
            "property" : "period",
            "title":"Labels.PeriodLabel",
            "formatter": "TranslationFormatter",
            "formatString": "Periods.${value}"
        },
        {
            "name":"registrationYear/alternateName",
            "property" : "academicYear",
            "title" : "Labels.AcademicYear"
        },
        {
            "name":"status/alternateName",
            "property" : "status",
            "title":"Students.Status",
            "formatter": "TranslationFormatter",
            "formatString": "RegistrationStatus.${value}"
        }
    ],
    "defaults":{
      "filter": "(student/department eq ${currentDepartment})"
    },
    "criteria" : [
        {
          "name": "studentIdentifier",
          "filter": "(student/studentIdentifier eq '${value}')",
          "type": "text"
        },
        {
          "name": "studentName",
          "filter": "(indexof(student/person/givenName, '${value}') ge 0 or indexof(student/person/familyName, '${value}') ge 0)",
          "type": "text"
        },
        {
          "name": "status",
          "filter": "(status/alternateName eq '${value}')",
          "type": "text"
        },
        {
          "name": "registrationDate",
          "filter": "(registrationDate eq '${value}')",
          "type": "text"
        },
        {
          "name": "registrationPeriod",
          "filter": "(registrationPeriod/alternateName eq '${value}')",
          "type": "text"
        },
        {
          "name": "semester",
          "filter": "(semester eq '${value}')",
          "type": "text"
        },
        {
          "name": "registrationYear",
          "filter": "(registrationYear eq '${value}')",
          "type": "text"
        }
    ]    
}
