{
    "model": "Internships",
    "title": "New internship",
    "display": "form",
    "settings": {
        "i18n": {
            "el": {
                "New internship": "Νέα πρακτική άσκηση"
            }
        }
    },
    "components": [
        {
            "label": "Tabs",
            "type": "tabs",
            "key": "tabs1",
            "path": "tabs1",
            "input": false,   
            "components": [
                {
                    "label": "Internship Information",
                    "components": [
                        {
                          "legend": "Internship Information",
                          "key": "fieldSet",
                          "type": "fieldset",
                          "input": false,
                          "label": "Internship Information",    
                            "components": [
                                {
                                    
                                    "columns": [
                                        {
                                            "components": [
                                                {
                                                    "type": "select",
                                                    "label": "Department",
                                                    "labelPosition": "top",
                                                    "dataSrc": "url",
                                                    "data": {
                                                        "url": "LocalDepartments/?$select=id,name",
                                                        "headers": []
                                                    },
                                                    "template": "<span class='col-4 text-truncate'>{{ item.name }}</span>",
                                                    "selectValues": "value",
                                                    "widget": "choicesjs",
                                                    "key": "department.name",
                                                    "input": true,
                                                    "searchEnabled": true,
                                                    "searchFields":[ "value.id", "value.name" ]
                                                }
                                            ],
                                            "width": 9,
                                            "offset": 0,
                                            "push": 0,
                                            "pull": 0
                                        },
                                        {
                                            "components": [
                                                {
                                                    "type": "textfield",
                                                    "label": "ID",
                                                    "labelPosition": "top",
                                                    "widget": {
                                                        "type": "input"
                                                    },
                                                    "key": "internship.id",
                                                    "input": true
                                                }
                                            ],
                                            "width": 3,
                                            "offset": 0,
                                            "push": 0,
                                            "pull": 0
                                        }
                                    ],
                                    "customClass": "text-dark",
                                    "hideLabel": true,
                                    "type": "columns",
                                    "input": false
                                },
                                {
                                    "columns": [
                                        {
                                            "components": [
                                                {
                                                    "type": "textfield",
                                                    "label": "Company",
                                                    "key": "company",
                                                    "input": true,
                                                    "validate": {
                                                        "required": true
                                                    }
                                                }
                                            ],
                                            "width": 3,
                                            "offset": 0,
                                            "push": 0,
                                            "pull": 0
                                        },
                                        {
                                            "components": [
                                                {
                                                    "type": "textfield",
                                                    "label": "Company contact",
                                                    "key": "companyContact",
                                                    "input": true,
                                                    "validate": {
                                                        "required": true
                                                    }
                                                }
                                            ],
                                            "width": 3,
                                            "offset": 0,
                                            "push": 0,
                                            "pull": 0
                                        },
                                        {
                                            "components": [
                                                {
                                                    "type": "textfield",
                                                    "label": "Company contact phone",
                                                    "key": "companyContactPhone",
                                                    "spellcheck": true,
                                                    "inputMask": "+999999999999",
                                                    "input": true
                                                }
                                            ],
                                            "width": 3,
                                            "offset": 0,
                                            "push": 0,
                                            "pull": 0
                                        },
                                        {
                                            "components": [
                                                {
                                                    "label": "Year",
                                                    "key": "internshipYear",
                                                    "labelPosition": "top",
                                                    "type": "select",
                                                    "searchEnabled": true,
                                                    "searchFields":  [ "value.id", "value.alternateName" ],
                                                    "dataSrc": "url",
                                                    "data": {
                                                        "url": "AcademicYears/?$top=90&$orderby=id desc",
                                                        "headers": []
                                                    },
                                                    "template": "<span class='col-4 text-truncate'>{{ item.alternateName }}</span>",
                                                    "input": true,
                                                    "lazyLoad": true,
                                                    "selectValues": "value",
                                                    "widget": "choicesjs",
                                                    "validate": {
                                                        "required": true
                                                    }
                                                }
                                            ],
                                            "width": 3,
                                            "offset": 0,
                                            "push": 0,
                                            "pull": 0
                                        }
                                    ],
                                    "customClass": "text-dark",
                                    "type": "columns",
                                    "input": false
                                },
                                {
                                    "columns": [
                                        {
                                            "components": [
                                                {
                                                    "type": "datetime",
                                                    "format": "dd/MM/yyyy",
                                                    "label": "Start date",
                                                    "key": "startDate",
                                                    "input": true,
                                                    "validate": {
                                                        "required": true
                                                    }
                                                }
                                            ],
                                            "width": 3,
                                            "offset": 0,
                                            "push": 0,
                                            "pull": 0
                                        },
                                        {
                                            "components": [
                                                {
                                                    "type": "datetime",
                                                    "format": "dd/MM/yyyy",
                                                    "label": "Date completed",
                                                    "key": "dateCompleted",
                                                    "input": true
                                                }
                                            ],
                                            "width": 3,
                                            "offset": 0,
                                            "push": 0,
                                            "pull": 0
                                        },
                                        {
                                            "components": [
                                                {
                                                    "type": "select",
                                                    "label": "Internship status",
                                                    "key": "status.name",
                                                    "input": true,
                                                    "dataSrc": "url",
                                                    "data": {
                                                        "url": "InternshipStatuses",
                                                        "headers": []
                                                    },
                                                    "template": "<span class='col-4 text-truncate'>{{ item.name }}</span>",
                                                    "selectValues": "value",
                                                    "validate": {
                                                        "required": true
                                                    },
                                                    "defaultValue": "potential",
                                                    "valueProperty": "alternateName",
                                                    "searchEnabled": false,
                                                    "lazyLoad": false
                                                }
                                            ],
                                            "width": 3,
                                            "offset": 0,
                                            "push": 0,
                                            "pull": 0
                                        },
                                        {
                                            "components": [
                                                {
                                                    "type": "select",
                                                    "label": "Period",
                                                    "key": "internshipPeriod",
                                                    "input": true,
                                                    "searchEnabled": true,
                                                    "searchFields":  [ "value.id", "value.alternateName" ],
                                                    "dataSrc": "url",
                                                    "data": {
                                                        "url": "AcademicPeriods",
                                                        "headers": []
                                                    },
                                                    "template": "<span class='col-4 text-truncate'>{{ item.name }}</span>",
                                                    "selectValues": "value",
                                                    "widget": "choicesjs",
                                                    "validate": {
                                                        "required": true
                                                    }
                                                }
                                            ],
                                            "width": 3,
                                            "offset": 0,
                                            "push": 0,
                                            "pull": 0
                                        }
                                    ],
                                    "customClass": "text-dark",
                                    "type": "columns",
                                    "input": false
                                },
                                {
                                    "columns": [
                                        {
                                            "components": [
                                                {
                                                    "type": "textarea",
                                                    "label": "Internship name",
                                                    "key": "name",
                                                    "input": true,
                                                    "rows": 2,
                                                    "validate": {
                                                        "required": true
                                                    }
                                                }
                                            ],
                                            "width": 12,
                                            "offset": 0,
                                            "push": 0,
                                            "pull": 0
                                        } 
                                    ],
                                    "customClass": "text-dark",
                                    "type": "columns",
                                    "input": false
                                }
                            ]
                        }
                    ]

                },
                {
                    "label": "Student Information",
                    "components": [
                        {
                            "legend": "Student Information",
                            "key": "fieldSet",
                            "type": "fieldset",
                            "input": false,
                            "label": "Student Information",
                            "disabled": true,
                            "components": [
                                {
                                    "columns": [
                                        {
                                            "components": [
                                                {
                                                    "label": "Student Number",
                                                    "labelPosition": "top",
                                                    "key": "studentIdentifier",
                                                    "widget": "choicesjs",
                                                    "type": "textfield",
                                                    "input": true
                                                }
                                            ],
                                            "width": 3,
                                            "offset": 0,
                                            "push": 0,
                                            "pull": 0
                                        }
                                    ],
                                    "customClass": "text-dark",
                                    "type": "columns",
                                    "input": false
                                },
                                {
                                    "columns": [
                                        {
                                            "components": [
                                                {
                                                    "label": "Given Name",
                                                    "labelPosition": "top",
                                                    "widget": "choicesjs",
                                                    "key": "person.givenName",
                                                    "type": "textfield",
                                                    "input": true
                                                }
                                            ],
                                            "width": 3,
                                            "offset": 0,
                                            "push": 0,
                                            "pull": 0
                                        },
                                        {
                                            "components": [
                                                {
                                                    "label": "Family Name",
                                                    "lazyLoad": false,
                                                    "labelPosition": "top",
                                                    "key": "person.familyName",
                                                    "type": "textfield",
                                                    "input": true
                                                }
                                            ],
                                            "width": 3,
                                            "offset": 0,
                                            "push": 0,
                                            "pull": 0
                                        },
                                        {
                                            "components": [
                                                {
                                                    "label": "Father's Name",
                                                    "labelPosition": "top",
                                                    "widget": "choicesjs",
                                                    "selectValues": "value",
                                                    "key": "person.fatherName",
                                                    "type": "textfield",
                                                    "input": true
                                                }
                                            ],
                                            "width": 3,
                                            "offset": 0,
                                            "push": 0,
                                            "pull": 0
                                        },
                                        {
                                            "components": [
                                                {
                                                    "label": "Status",
                                                    "labelPosition": "top",
                                                    "widget": "choicesjs",
                                                    "selectValues": "value",
                                                    "key": "studentStatus.name",
                                                    "type": "select"
                                                }
                                            ],
                                            "width": 3,
                                            "offset": 0,
                                            "push": 0,
                                            "pull": 0
                                        }
                                    ],
                                    "customClass": "text-dark",
                                    "hideLabel": true,
                                    "type": "columns",
                                    "input": false,
                                    "disabled": true
                                },
                                {
                                    "columns": [
                                        {
                                            "components": [
                                                {
                                                    "label": "Email",
                                                    "labelPosition": "top",
                                                    "key": "person.email",
                                                    "type": "textfield",
                                                    "input": true,
                                                    "widget": "choicesjs"
                                                }
                                            ],
                                            "width": 3,
                                            "offset": 0,
                                            "push": 0,
                                            "pull": 0
                                        },
                                        {
                                            "components": [
                                                {
                                                    "label": "Mobile Phone",
                                                    "labelPosition": "top",
                                                    "key": "person.mobilePhone",
                                                    "type": "number",
                                                    "input": true,
                                                    "widget": "choicesjs"
                                                }
                                            ],
                                            "width": 3,
                                            "offset": 0,
                                            "push": 0,
                                            "pull": 0
                                        },
                                        {
                                            "components": [
                                                {
                                                    "label": "Inscription Year",
                                                    "labelPosition": "top",
                                                    "key": "inscriptionYear.alternateName",
                                                    "type": "textfield",
                                                    "input": true,
                                                    "widget": "choicesjs"
                                                }
                                            ],
                                            "width": 3,
                                            "offset": 0,
                                            "push": 0,
                                            "pull": 0
                                        },
                                        {
                                            "components": [
                                                {
                                                    "label": "Semester",
                                                    "labelPosition": "top",
                                                    "widget": "choicesjs",
                                                    "key": "semester",
                                                    "type": "number",
                                                    "input": true
                                                }
                                            ],
                                            "width": 3,
                                            "offset": 0,
                                            "push": 0,
                                            "pull": 0
                                        }
                                    ],
                                    "customClass": "text-dark",
                                    "type": "columns",
                                    "input": false,
                                    "disabled": true
                                }
                            ]
                        }
                    ]

                }
            ]
        },
        {
            "type": "button",
            "label": "Submit",
            "key": "submit",
            "disableOnInvalid": true,
            "input": true
        }
    ]
}
